PhenolicsDB: phenolics MS/MS (LC-ESI-QTOF) database repository • PhenolicsDB
…
Negative
80
data("read_neg80_6546")
data("metdt_neg80_6546")

List of metabolites

In the extdata directory you will find all the .mzml files for all standards, as well as the structure tables to be used jointly with MS2extract.

In the following table you can see the list of metabolites we are including in this version of the database, as well as in what batch you will find them.

Disclaimer: Metabolites with no reported data file have not MS/MS data

#> # A tibble: 70 × 6
#>    Name                      Formula   min_rt max_rt COLLISIONENERGY Batch      
#>    <chr>                     <chr>      <dbl>  <dbl> <chr>           <chr>      
#>  1 Procyanidin A2            C30H24O12    163    180 20 eV           (1) QTOF-6…
#>  2 Rutin                     C27H30O16    162    171 20 eV           (1) QTOF-6…
#>  3 3-Hydroxybenzaldehyde     C7H6O2       152    166 20 eV           (1) QTOF-6…
#>  4 4-Hydroxybenzaldehyde     C7H6O2       137    170 20 eV           (1) QTOF-6…
#>  5 Salycilic acid            C7H6O3       180    200 20 eV           (1) QTOF-6…
#>  6 Malic acid                C4H6O5        16     42 20 eV           (1) QTOF-6…
#>  7 (E)-Cinamic acid          C9H8O2       214    228 20 eV           (1) QTOF-6…
#>  8 2-3-Dihydroxybenzoic acid C7H6O4       135    146 20 eV           (1) QTOF-6…
#>  9 2-5-Dihydroxybenzoic acid C7H6O4       120    140 20 eV           (1) QTOF-6…
#> 10 2-6-Dihydroxybenzoic acid C7H6O4       120    150 20 eV           (1) QTOF-6…
#> # ℹ 60 more rows
…
